[gd_scene load_steps=3 format=2]

[ext_resource path="res://flame.png" type="Texture" id=1]
[ext_resource path="res://rocket_noflame.png" type="Texture" id=2]

[node name="Node2D" type="KinematicBody2D"]

[node name="Collision" type="CollisionPolygon2D" parent="."]
rotation = 1.5708
polygon = PoolVector2Array( -1.0744, -260.543, 88.0749, -192.37, 85.8274, -37.2953, 176.475, 63.8404, 174.977, 203.183, 79.8342, 141.003, -81.983, 141.003, -174.878, 205.43, -175.627, 62.3421, -84.9796, -42.5394, -86.4779, -193.868 )

[node name="rocket" type="Sprite" parent="."]
rotation = 1.5708
texture = ExtResource( 2 )

[node name="flame" type="Sprite" parent="."]
visible = false
rotation = 1.5708
texture = ExtResource( 1 )
